WORK/Verilog_modul_przesuniecie/signals.vcd
$date
	Thu Nov 23 19:57:32 2023
$end
$version
	Icarus Verilog
$end
$timescale
	1s
$end
$scope module przesuniecie_tb $end
$var wire 1 ! s_o_error_synthesis $end
$var wire 32 " s_o_synthesis [31:0] $end
$var wire 1 # s_o_overflow_synthesis $end
$var wire 1 $ s_o_overflow_model $end
$var wire 32 % s_o_model [31:0] $end
$var wire 1 & s_o_error_model $end
$var reg 32 ' s_i_arg_A [31:0] $end
$var reg 32 ( s_i_arg_B [31:0] $end
$scope module przesuniecie $end
$var wire 32 ) i_arg_A [31:0] $end
$var wire 32 * i_arg_B [31:0] $end
$var reg 1 & o_error $end
$var reg 1 $ o_overflow $end
$var reg 32 + o_result [31:0] $end
$upscope $end
$scope module przesuniecie_rtl $end
$var wire 1 , _000_ $end
$var wire 1 - _001_ $end
$var wire 1 . _002_ $end
$var wire 1 / _003_ $end
$var wire 1 0 _004_ $end
$var wire 1 1 _005_ $end
$var wire 1 2 _006_ $end
$var wire 1 3 _007_ $end
$var wire 1 4 _008_ $end
$var wire 1 5 _009_ $end
$var wire 1 6 _010_ $end
$var wire 1 7 _011_ $end
$var wire 1 8 _012_ $end
$var wire 1 9 _013_ $end
$var wire 1 : _014_ $end
$var wire 1 ; _015_ $end
$var wire 1 < _016_ $end
$var wire 1 = _017_ $end
$var wire 1 > _018_ $end
$var wire 1 ? _019_ $end
$var wire 1 @ _020_ $end
$var wire 1 A _021_ $end
$var wire 1 B _022_ $end
$var wire 1 C _023_ $end
$var wire 1 D _024_ $end
$var wire 1 E _025_ $end
$var wire 1 F _026_ $end
$var wire 1 G _027_ $end
$var wire 1 H _028_ $end
$var wire 1 I _029_ $end
$var wire 1 J _030_ $end
$var wire 1 K _031_ $end
$var wire 1 L _032_ $end
$var wire 1 M _033_ $end
$var wire 1 N _034_ $end
$var wire 1 O _035_ $end
$var wire 1 P _036_ $end
$var wire 1 Q _037_ $end
$var wire 1 R _038_ $end
$var wire 1 S _039_ $end
$var wire 1 T _040_ $end
$var wire 1 U _041_ $end
$var wire 1 V _042_ $end
$var wire 1 W _043_ $end
$var wire 1 X _044_ $end
$var wire 1 Y _045_ $end
$var wire 1 Z _046_ $end
$var wire 1 [ _047_ $end
$var wire 1 \ _048_ $end
$var wire 1 ] _049_ $end
$var wire 1 ^ _050_ $end
$var wire 1 _ _051_ $end
$var wire 1 ` _052_ $end
$var wire 1 a _053_ $end
$var wire 1 b _054_ $end
$var wire 1 c _055_ $end
$var wire 1 d _056_ $end
$var wire 1 e _057_ $end
$var wire 1 f _058_ $end
$var wire 1 g _059_ $end
$var wire 1 h _060_ $end
$var wire 1 i _061_ $end
$var wire 1 j _062_ $end
$var wire 1 k _063_ $end
$var wire 1 l _064_ $end
$var wire 1 m _065_ $end
$var wire 1 n _066_ $end
$var wire 1 o _067_ $end
$var wire 1 p _068_ $end
$var wire 1 q _069_ $end
$var wire 1 r _070_ $end
$var wire 1 s _071_ $end
$var wire 1 t _072_ $end
$var wire 1 u _073_ $end
$var wire 1 v _074_ $end
$var wire 1 w _075_ $end
$var wire 1 x _076_ $end
$var wire 1 y _077_ $end
$var wire 1 z _078_ $end
$var wire 1 { _079_ $end
$var wire 1 | _080_ $end
$var wire 1 } _081_ $end
$var wire 1 ~ _082_ $end
$var wire 1 !" _083_ $end
$var wire 1 "" _084_ $end
$var wire 1 #" _085_ $end
$var wire 1 $" _086_ $end
$var wire 1 %" _087_ $end
$var wire 1 &" _088_ $end
$var wire 1 '" _089_ $end
$var wire 1 (" _090_ $end
$var wire 1 )" _091_ $end
$var wire 1 *" _092_ $end
$var wire 1 +" _093_ $end
$var wire 1 ," _094_ $end
$var wire 1 -" _095_ $end
$var wire 1 ." _096_ $end
$var wire 1 /" _097_ $end
$var wire 1 0" _098_ $end
$var wire 1 1" _099_ $end
$var wire 1 2" _100_ $end
$var wire 1 3" _101_ $end
$var wire 1 4" _102_ $end
$var wire 1 5" _103_ $end
$var wire 1 6" _104_ $end
$var wire 1 7" _105_ $end
$var wire 1 8" _106_ $end
$var wire 1 9" _107_ $end
$var wire 1 :" _108_ $end
$var wire 1 ;" _109_ $end
$var wire 1 <" _110_ $end
$var wire 1 =" _111_ $end
$var wire 1 >" _112_ $end
$var wire 1 ?" _113_ $end
$var wire 1 @" _114_ $end
$var wire 1 A" _115_ $end
$var wire 1 B" _116_ $end
$var wire 1 C" _117_ $end
$var wire 1 D" _118_ $end
$var wire 1 E" _119_ $end
$var wire 1 F" _120_ $end
$var wire 1 G" _121_ $end
$var wire 1 H" _122_ $end
$var wire 1 I" _123_ $end
$var wire 1 J" _124_ $end
$var wire 1 K" _125_ $end
$var wire 1 L" _126_ $end
$var wire 1 M" _127_ $end
$var wire 1 N" _128_ $end
$var wire 1 O" _129_ $end
$var wire 1 P" _130_ $end
$var wire 1 Q" _131_ $end
$var wire 1 R" _132_ $end
$var wire 1 S" _133_ $end
$var wire 1 T" _134_ $end
$var wire 1 U" _135_ $end
$var wire 1 V" _136_ $end
$var wire 1 W" _137_ $end
$var wire 1 X" _138_ $end
$var wire 1 Y" _139_ $end
$var wire 1 Z" _140_ $end
$var wire 1 [" _141_ $end
$var wire 1 \" _142_ $end
$var wire 1 ]" _143_ $end
$var wire 1 ^" _144_ $end
$var wire 1 _" _145_ $end
$var wire 1 `" _146_ $end
$var wire 1 a" _147_ $end
$var wire 1 b" _148_ $end
$var wire 1 c" _149_ $end
$var wire 1 d" _150_ $end
$var wire 1 e" _151_ $end
$var wire 1 f" _152_ $end
$var wire 1 g" _153_ $end
$var wire 1 h" _154_ $end
$var wire 1 i" _155_ $end
$var wire 1 j" _156_ $end
$var wire 1 k" _157_ $end
$var wire 1 l" _158_ $end
$var wire 1 m" _159_ $end
$var wire 1 n" _160_ $end
$var wire 1 o" _161_ $end
$var wire 1 p" _162_ $end
$var wire 1 q" _163_ $end
$var wire 1 r" _164_ $end
$var wire 1 s" _165_ $end
$var wire 1 t" _166_ $end
$var wire 1 u" _167_ $end
$var wire 1 v" _168_ $end
$var wire 1 w" _169_ $end
$var wire 1 x" _170_ $end
$var wire 1 y" _171_ $end
$var wire 1 z" _172_ $end
$var wire 1 {" _173_ $end
$var wire 1 |" _174_ $end
$var wire 1 }" _175_ $end
$var wire 1 ~" _176_ $end
$var wire 1 !# _177_ $end
$var wire 1 "# _178_ $end
$var wire 1 ## _179_ $end
$var wire 1 $# _180_ $end
$var wire 1 %# _181_ $end
$var wire 1 &# _182_ $end
$var wire 1 '# _183_ $end
$var wire 1 (# _184_ $end
$var wire 1 )# _185_ $end
$var wire 1 *# _186_ $end
$var wire 1 +# _187_ $end
$var wire 1 ,# _188_ $end
$var wire 1 -# _189_ $end
$var wire 1 .# _190_ $end
$var wire 1 /# _191_ $end
$var wire 1 0# _192_ $end
$var wire 1 1# _193_ $end
$var wire 1 2# _194_ $end
$var wire 1 3# _195_ $end
$var wire 1 4# _196_ $end
$var wire 1 5# _197_ $end
$var wire 1 6# _198_ $end
$var wire 1 7# _199_ $end
$var wire 1 8# _200_ $end
$var wire 1 9# _201_ $end
$var wire 1 :# _202_ $end
$var wire 1 ;# _203_ $end
$var wire 1 <# _204_ $end
$var wire 1 =# _205_ $end
$var wire 1 ># _206_ $end
$var wire 1 ?# _207_ $end
$var wire 1 @# _208_ $end
$var wire 1 A# _209_ $end
$var wire 1 B# _210_ $end
$var wire 1 C# _211_ $end
$var wire 1 D# _212_ $end
$var wire 1 E# _213_ $end
$var wire 1 F# _214_ $end
$var wire 1 G# _215_ $end
$var wire 1 H# _216_ $end
$var wire 1 I# _217_ $end
$var wire 1 J# _218_ $end
$var wire 1 K# _219_ $end
$var wire 1 L# _220_ $end
$var wire 1 M# _221_ $end
$var wire 1 N# _222_ $end
$var wire 1 O# _223_ $end
$var wire 1 P# _224_ $end
$var wire 1 Q# _225_ $end
$var wire 1 R# _226_ $end
$var wire 1 S# _227_ $end
$var wire 1 T# _228_ $end
$var wire 1 U# _229_ $end
$var wire 1 V# _230_ $end
$var wire 1 W# _231_ $end
$var wire 1 X# _232_ $end
$var wire 1 Y# _233_ $end
$var wire 1 Z# _234_ $end
$var wire 1 [# _235_ $end
$var wire 1 \# _236_ $end
$var wire 1 ]# _237_ $end
$var wire 1 ^# _238_ $end
$var wire 1 _# _239_ $end
$var wire 1 `# _240_ $end
$var wire 1 a# _241_ $end
$var wire 1 b# _242_ $end
$var wire 1 c# _243_ $end
$var wire 1 d# _244_ $end
$var wire 1 e# _245_ $end
$var wire 1 f# _246_ $end
$var wire 1 g# _247_ $end
$var wire 1 h# _248_ $end
$var wire 1 i# _249_ $end
$var wire 1 j# _250_ $end
$var wire 1 k# _251_ $end
$var wire 1 l# _252_ $end
$var wire 1 m# _253_ $end
$var wire 1 n# _254_ $end
$var wire 1 o# _255_ $end
$var wire 1 p# _256_ $end
$var wire 1 q# _257_ $end
$var wire 1 r# _258_ $end
$var wire 1 s# _259_ $end
$var wire 1 t# _260_ $end
$var wire 1 u# _261_ $end
$var wire 1 v# _262_ $end
$var wire 1 w# _263_ $end
$var wire 1 x# _264_ $end
$var wire 1 y# _265_ $end
$var wire 1 z# _266_ $end
$var wire 1 {# _267_ $end
$var wire 1 |# _268_ $end
$var wire 1 }# _269_ $end
$var wire 1 ~# _270_ $end
$var wire 1 !$ _271_ $end
$var wire 1 "$ _272_ $end
$var wire 1 #$ _273_ $end
$var wire 1 $$ _274_ $end
$var wire 1 %$ _275_ $end
$var wire 1 &$ _276_ $end
$var wire 1 '$ _277_ $end
$var wire 1 ($ _278_ $end
$var wire 1 )$ _279_ $end
$var wire 1 *$ _280_ $end
$var wire 1 +$ _281_ $end
$var wire 1 ,$ _282_ $end
$var wire 1 -$ _283_ $end
$var wire 1 .$ _284_ $end
$var wire 1 /$ _285_ $end
$var wire 1 0$ _286_ $end
$var wire 1 1$ _287_ $end
$var wire 1 2$ _288_ $end
$var wire 1 3$ _289_ $end
$var wire 1 4$ _290_ $end
$var wire 1 5$ _291_ $end
$var wire 1 6$ _292_ $end
$var wire 1 7$ _293_ $end
$var wire 1 8$ _294_ $end
$var wire 1 9$ _295_ $end
$var wire 1 :$ _296_ $end
$var wire 1 ;$ _297_ $end
$var wire 1 <$ _298_ $end
$var wire 1 =$ _299_ $end
$var wire 1 >$ _300_ $end
$var wire 1 ?$ _301_ $end
$var wire 1 @$ _302_ $end
$var wire 1 A$ _303_ $end
$var wire 1 B$ _304_ $end
$var wire 1 C$ _305_ $end
$var wire 1 D$ _306_ $end
$var wire 1 E$ _307_ $end
$var wire 1 F$ _308_ $end
$var wire 1 G$ _309_ $end
$var wire 1 H$ _310_ $end
$var wire 1 I$ _311_ $end
$var wire 1 J$ _312_ $end
$var wire 1 K$ _313_ $end
$var wire 1 L$ _314_ $end
$var wire 1 M$ _315_ $end
$var wire 1 N$ _316_ $end
$var wire 1 O$ _317_ $end
$var wire 1 P$ _318_ $end
$var wire 1 Q$ _319_ $end
$var wire 1 R$ _320_ $end
$var wire 1 S$ _321_ $end
$var wire 1 T$ _322_ $end
$var wire 1 U$ _323_ $end
$var wire 1 V$ _324_ $end
$var wire 1 W$ _325_ $end
$var wire 1 X$ _326_ $end
$var wire 1 Y$ _327_ $end
$var wire 1 Z$ _328_ $end
$var wire 1 [$ _329_ $end
$var wire 1 \$ _330_ $end
$var wire 1 ]$ _331_ $end
$var wire 1 ^$ _332_ $end
$var wire 1 _$ _333_ $end
$var wire 1 `$ _334_ $end
$var wire 1 a$ _335_ $end
$var wire 1 b$ _336_ $end
$var wire 1 c$ _337_ $end
$var wire 1 d$ _338_ $end
$var wire 1 e$ _339_ $end
$var wire 1 f$ _340_ $end
$var wire 1 g$ _341_ $end
$var wire 1 h$ _342_ $end
$var wire 1 i$ _343_ $end
$var wire 1 j$ _344_ $end
$var wire 1 k$ _345_ $end
$var wire 1 l$ _346_ $end
$var wire 1 m$ _347_ $end
$var wire 1 n$ _348_ $end
$var wire 1 o$ _349_ $end
$var wire 1 p$ _350_ $end
$var wire 1 q$ _351_ $end
$var wire 1 r$ _352_ $end
$var wire 1 s$ _353_ $end
$var wire 1 t$ _354_ $end
$var wire 1 u$ _355_ $end
$var wire 1 v$ _356_ $end
$var wire 1 w$ _357_ $end
$var wire 1 x$ _358_ $end
$var wire 1 y$ _359_ $end
$var wire 1 z$ _360_ $end
$var wire 1 {$ _361_ $end
$var wire 1 |$ _362_ $end
$var wire 1 }$ _363_ $end
$var wire 1 ~$ _364_ $end
$var wire 1 !% _365_ $end
$var wire 1 "% _366_ $end
$var wire 1 #% _367_ $end
$var wire 1 $% _368_ $end
$var wire 1 %% _369_ $end
$var wire 1 &% _370_ $end
$var wire 1 '% _371_ $end
$var wire 1 (% _372_ $end
$var wire 1 )% _373_ $end
$var wire 1 *% _374_ $end
$var wire 1 +% _375_ $end
$var wire 1 ,% _376_ $end
$var wire 1 -% _377_ $end
$var wire 1 .% _378_ $end
$var wire 1 /% _379_ $end
$var wire 1 0% _380_ $end
$var wire 1 1% _381_ $end
$var wire 1 2% _382_ $end
$var wire 1 3% _383_ $end
$var wire 1 4% _384_ $end
$var wire 1 5% _385_ $end
$var wire 1 6% _386_ $end
$var wire 1 7% _387_ $end
$var wire 1 8% _388_ $end
$var wire 1 9% _389_ $end
$var wire 1 :% _390_ $end
$var wire 1 ;% _391_ $end
$var wire 1 <% _392_ $end
$var wire 1 =% _393_ $end
$var wire 1 >% _394_ $end
$var wire 1 ?% _395_ $end
$var wire 1 @% _396_ $end
$var wire 1 A% _397_ $end
$var wire 1 B% _398_ $end
$var wire 1 C% _399_ $end
$var wire 1 D% _400_ $end
$var wire 1 E% _401_ $end
$var wire 1 F% _402_ $end
$var wire 1 G% _403_ $end
$var wire 1 H% _404_ $end
$var wire 1 I% _405_ $end
$var wire 1 J% _406_ $end
$var wire 1 K% _407_ $end
$var wire 1 L% _408_ $end
$var wire 1 M% _409_ $end
$var wire 1 N% _410_ $end
$var wire 1 O% _411_ $end
$var wire 1 P% _412_ $end
$var wire 1 Q% _413_ $end
$var wire 1 R% _414_ $end
$var wire 1 S% _415_ $end
$var wire 1 T% _416_ $end
$var wire 1 U% _417_ $end
$var wire 1 V% _418_ $end
$var wire 1 W% _419_ $end
$var wire 1 X% _420_ $end
$var wire 1 Y% _421_ $end
$var wire 1 Z% _422_ $end
$var wire 1 [% _423_ $end
$var wire 1 \% _424_ $end
$var wire 1 ]% _425_ $end
$var wire 1 ^% _426_ $end
$var wire 1 _% _427_ $end
$var wire 1 `% _428_ $end
$var wire 1 a% _429_ $end
$var wire 1 b% _430_ $end
$var wire 1 c% _431_ $end
$var wire 1 d% _432_ $end
$var wire 1 e% _433_ $end
$var wire 1 f% _434_ $end
$var wire 1 g% _435_ $end
$var wire 1 h% _436_ $end
$var wire 1 i% _437_ $end
$var wire 1 j% _438_ $end
$var wire 1 k% _439_ $end
$var wire 1 l% _440_ $end
$var wire 1 m% _441_ $end
$var wire 1 n% _442_ $end
$var wire 1 o% _443_ $end
$var wire 1 p% _444_ $end
$var wire 1 q% _445_ $end
$var wire 1 r% _446_ $end
$var wire 1 s% _447_ $end
$var wire 1 t% _448_ $end
$var wire 1 u% _449_ $end
$var wire 1 v% _450_ $end
$var wire 1 w% _451_ $end
$var wire 1 x% _452_ $end
$var wire 1 y% _453_ $end
$var wire 1 z% _454_ $end
$var wire 1 {% _455_ $end
$var wire 1 |% _456_ $end
$var wire 1 }% _457_ $end
$var wire 1 ~% _458_ $end
$var wire 1 !& _459_ $end
$var wire 1 "& _460_ $end
$var wire 1 #& _461_ $end
$var wire 1 $& _462_ $end
$var wire 1 %& _463_ $end
$var wire 1 && _464_ $end
$var wire 1 '& _465_ $end
$var wire 1 (& _466_ $end
$var wire 1 )& _467_ $end
$var wire 1 *& _468_ $end
$var wire 1 +& _469_ $end
$var wire 1 ,& _470_ $end
$var wire 1 -& _471_ $end
$var wire 32 .& i_arg_A [31:0] $end
$var wire 32 /& i_arg_B [31:0] $end
$var wire 1 ! o_error $end
$var wire 1 # o_overflow $end
$var wire 32 0& o_result [31:0] $end
$upscope $end
$scope begin $ivl_for_loop0 $end
$var integer 32 1& i [31:0] $end
$upscope $end
$scope begin $ivl_for_loop1 $end
$var integer 32 2& i [31:0] $end
$upscope $end
$scope begin $ivl_for_loop2 $end
$var integer 32 3& i [31:0] $end
$upscope $end
$scope begin $ivl_for_loop3 $end
$var integer 32 4& i [31:0] $end
$upscope $end
$scope begin $ivl_for_loop4 $end
$var integer 32 5& i [31:0] $end
$upscope $end
$upscope $end
$enddefinitions $end
#0
$dumpvars
b0 5&
b0 4&
b0 3&
b0 2&
b0 1&
b0 0&
b0 /&
b0 .&
1-&
1,&
0+&
0*&
0)&
0(&
0'&
1&&
1%&
0$&
0#&
0"&
0!&
1~%
1}%
0|%
1{%
0z%
0y%
0x%
1w%
0v%
1u%
0t%
0s%
0r%
1q%
0p%
0o%
1n%
1m%
0l%
0k%
0j%
0i%
1h%
1g%
0f%
0e%
0d%
0c%
1b%
1a%
0`%
0_%
0^%
0]%
1\%
1[%
0Z%
0Y%
0X%
0W%
0V%
1U%
1T%
1S%
0R%
1Q%
0P%
0O%
0N%
1M%
0L%
1K%
0J%
0I%
0H%
0G%
0F%
0E%
1D%
1C%
1B%
0A%
1@%
0?%
0>%
0=%
1<%
0;%
1:%
09%
08%
07%
06%
05%
04%
13%
12%
11%
00%
1/%
0.%
0-%
0,%
1+%
0*%
1)%
0(%
0'%
0&%
0%%
0$%
0#%
1"%
1!%
1~$
0}$
1|$
0{$
0z$
0y$
1x$
0w$
1v$
0u$
0t$
0s$
0r$
0q$
0p$
1o$
0n$
1m$
0l$
1k$
0j$
1i$
0h$
1g$
0f$
1e$
0d$
1c$
0b$
0a$
0`$
1_$
0^$
0]$
0\$
1[$
0Z$
1Y$
0X$
1W$
0V$
0U$
0T$
1S$
0R$
0Q$
0P$
1O$
0N$
1M$
0L$
0K$
0J$
0I$
0H$
0G$
1F$
0E$
1D$
0C$
0B$
1A$
0@$
1?$
0>$
1=$
1<$
0;$
1:$
09$
18$
07$
06$
05$
14$
03$
02$
01$
10$
0/$
1.$
0-$
1,$
0+$
0*$
0)$
1($
0'$
0&$
0%$
1$$
0#$
1"$
0!$
0~#
0}#
0|#
1{#
1z#
1y#
0x#
0w#
0v#
0u#
0t#
1s#
0r#
0q#
0p#
0o#
0n#
0m#
0l#
0k#
1j#
0i#
0h#
0g#
1f#
0e#
0d#
0c#
1b#
0a#
1`#
0_#
1^#
0]#
1\#
0[#
0Z#
0Y#
1X#
0W#
0V#
0U#
1T#
0S#
1R#
0Q#
0P#
0O#
1N#
0M#
0L#
0K#
1J#
0I#
1H#
0G#
1F#
0E#
1D#
0C#
0B#
0A#
1@#
0?#
0>#
0=#
1<#
0;#
1:#
09#
08#
07#
16#
05#
04#
03#
12#
01#
10#
0/#
1.#
0-#
0,#
0+#
1*#
0)#
0(#
0'#
1&#
0%#
1$#
0##
0"#
0!#
0~"
1}"
1|"
1{"
0z"
0y"
0x"
0w"
0v"
0u"
1t"
0s"
0r"
0q"
0p"
0o"
0n"
0m"
0l"
0k"
0j"
0i"
0h"
1g"
0f"
0e"
0d"
1c"
1b"
0a"
1`"
0_"
1^"
0]"
0\"
0["
1Z"
0Y"
0X"
0W"
1V"
0U"
0T"
0S"
0R"
0Q"
1P"
0O"
1N"
0M"
0L"
0K"
0J"
0I"
1H"
0G"
0F"
0E"
1D"
0C"
0B"
1A"
0@"
1?"
0>"
1="
0<"
1;"
0:"
09"
08"
07"
06"
15"
04"
03"
02"
01"
00"
1/"
0."
1-"
0,"
0+"
0*"
0)"
0("
1'"
0&"
0%"
0$"
0#"
0""
1!"
0~
1}
0|
1{
0z
0y
0x
0w
0v
1u
0t
0s
0r
0q
0p
1o
0n
1m
0l
0k
0j
0i
0h
1g
0f
0e
0d
0c
0b
0a
0`
0_
0^
0]
0\
0[
0Z
0Y
0X
0W
0V
0U
0T
0S
0R
0Q
0P
0O
0N
0M
0L
0K
0J
0I
0H
0G
0F
0E
0D
0C
0B
0A
0@
0?
0>
0=
0<
0;
0:
09
08
07
06
05
04
03
02
01
10
1/
1.
1-
1,
bx +
b0 *
b0 )
b0 (
b0 '
0&
bx %
1$
1#
b0 "
0!
$end
#2
1v%
1E$
1n$
1t%
0#
1f
1j
1l
1r
1t
1x
1z
1$"
1&"
1*"
1,"
12"
14"
18"
1:"
1E"
1G"
1K"
1M"
1S"
1U"
1Y"
1["
1q"
1s"
1u"
1q#
1s%
1p"
1N
1p#
1d
1s$
1l"
1o#
1A"
1J#
10$
1[$
1x$
1+%
1<%
1M%
1M
1Z
1p
1#$
1Z%
1~
1)$
10"
1-$
1>"
15$
1Q"
19$
1_"
1@$
1y"
1N$
1`%
11#
1T$
1=#
1X$
1G#
1`$
1U#
1d$
1_#
1j$
1w#
1f%
1l%
b1111111111111 "
b1111111111111 0&
1k"
1n#
1?
1>
1L
1K
1S
1Y
1c
1i
1!$
1Y%
1w
1'$
1C"
1)"
1+$
17"
13$
1J"
17$
1X"
1>$
1x"
1L$
1_%
1,#
1R$
1L#
18#
1V$
1B#
1^$
1P#
1b$
1Z#
1h$
1v#
1e%
12$
1I$
1k%
1]$
1r$
1z$
1%%
1-%
16%
1>%
1G%
1O%
1X%
1i"
1l#
1!"
1?"
1`"
12#
1H#
1`#
1$$
1.$
1:$
1O$
1Y$
1e$
1v$
1|$
1)%
1/%
1:%
1@%
1K%
1Q%
1g
1m
1u
1{
1'"
1-"
15"
1;"
1H"
1N"
1V"
1Z"
1t"
1$#
1*#
1.#
16#
1:#
1@#
1D#
1N#
1R#
1X#
1\#
1s#
17
1:
1=
1D
1C
1G
1J
1R
1U
1X
1]
1b
1a
1h
1n
1""
1v
1|
1B"
1("
1."
1@"
16"
1<"
1I"
1O"
1a"
1W"
1]"
1w"
1%#
13#
1+#
1/#
1K#
17#
1;#
1I#
1A#
1E#
1O#
1S#
1a#
1Y#
1]#
1u#
1%$
11$
1/$
1;$
1H$
1P$
1\$
1Z$
1f$
1q$
1y$
1w$
1}$
1$%
1,%
1*%
10%
15%
1=%
1;%
1A%
1F%
1N%
1L%
1R%
1W%
1^%
1d%
1j%
1p%
1e"
1h"
1o"
1e#
1h#
1k#
0-&
0,
0.
14
15
16
18
19
1;
1<
1@
1A
1B
1E
1F
1H
1I
1P
1Q
1T
1V
1W
1[
1\
1^
1_
1`
1e
1k
1q
1s
1y
1#"
1%"
1+"
11"
13"
19"
1F"
1L"
1R"
1T"
1\"
1v"
1~"
1##
1(#
1)#
1-#
14#
15#
19#
1>#
1?#
1C#
1M#
1Q#
1V#
1W#
1[#
1t#
1|#
1~#
1&$
1*$
16$
1G$
1K$
1Q$
1U$
1a$
1p$
1t$
1u$
1{$
1#%
1'%
1(%
1.%
14%
18%
19%
1?%
1E%
1I%
1J%
1P%
1V%
1]%
1c%
1i%
1o%
1r%
1x%
1d"
1f"
0m"
1n"
0c#
1d#
1g#
1i#
0$
b1111111111111 %
b1111111111111 +
b1 1&
b11111111111111111111111111101101 (
b11111111111111111111111111101101 *
b11111111111111111111111111101101 /&
b1111111111111111111111111111111 '
b1111111111111111111111111111111 )
b1111111111111111111111111111111 .&
#3
1&%
1$&
1*&
0D"
0i"
0x"
0l#
0v#
0E$
0n$
1'#
17%
1C$
1l$
1,%
1=%
0N%
1|%
1#&
1)&
b11111111111111111111111 "
b11111111111111111111111 0&
0,&
1-&
0-
12
1j"
1r"
1"#
1m#
1r#
1}#
1B$
1'%
18%
0I%
0Y%
0_%
0e%
0k%
0s%
1z%
1"&
1(&
1+&
b11111111111111111111111 %
b11111111111111111111111 +
b10 1&
b11111111111111111111111111110111 (
b11111111111111111111111111110111 *
b11111111111111111111111111110111 /&
#4
13
11
00
0{"
0y#
0/
1N%
b1111111111111111111111111111111 "
b1111111111111111111111111111111 0&
0-&
1D"
1I%
1Y%
1_%
1e%
1k%
1s%
1y%
1!&
b1111111111111111111111111111111 %
b1111111111111111111111111111111 +
b11 1&
b11111111111111111111111111111111 (
b11111111111111111111111111111111 *
b11111111111111111111111111111111 /&
#5
1{"
1y#
1~"
0_%
1|#
1z"
1x#
1}"
03#
1{#
0e%
01
1|"
0(#
1z#
0%$
0k%
b1111111111111111111111111 "
b1111111111111111111111111 0&
10
1i"
1x"
1l#
1v#
1E$
1n$
03
1k"
0p"
1y"
0'#
1n#
0p#
1w#
0~#
0C$
0l$
0P$
0s%
0y%
0!&
1,
1-
02
0j"
0l"
0r"
0"#
0m#
0o#
0r#
0}#
0=$
0B$
0K$
0s$
0&%
07%
b1111111111111111111111111 %
b1111111111111111111111111 +
b100 1&
b11111111111111111111111111111001 (
b11111111111111111111111111111001 *
b11111111111111111111111111111001 /&
#6
03
1y%
01
1&%
1_%
1!&
1e%
1k%
1$&
0*&
1/
10
0z"
0x#
0i"
0x"
0l#
0v#
0E$
0n$
1p"
1'#
13#
1p#
17%
1%$
1C$
1l$
1P$
1s%
1v%
1|%
1#&
0)&
b111111111111111 "
b111111111111111 0&
1,&
0,
0-
12
1j"
1l"
1r"
1"#
1(#
1m#
1o#
1r#
1}#
1~#
1=$
1B$
1K$
1s$
1`%
1f%
1l%
1t%
1z%
1"&
0(&
0+&
b111111111111111 %
b111111111111111 +
b101 1&
b11111111111111111111111111101111 (
b11111111111111111111111111101111 *
b11111111111111111111111111101111 /&
#7
13
11
00
0{"
0y#
1*&
0/
1)&
b1111111111111111111111111111111 "
b1111111111111111111111111111111 0&
0,&
1(&
1+&
b1111111111111111111111111111111 %
b1111111111111111111111111111111 +
b1 2&
b11111111111111111111111111111111 (
b11111111111111111111111111111111 *
b11111111111111111111111111111111 /&
#8
b10 2&
#9
b11 2&
#10
b100 2&
#11
b101 2&
#12
0N%
0=%
0,%
0y$
0\$
01$
0K#
0B"
0|%
0v%
0p%
0j%
0d%
0^%
0G%
0M%
0<%
0+%
0x$
0[$
00$
0J#
0A"
0%&
0}%
0{%
0u%
0m%
0g%
0a%
0[%
0X%
0F%
06%
0%%
0r$
0I$
0L%
0;%
0*%
0w$
0Z$
0/$
0I#
0@"
0R%
0A%
00%
0}$
0f$
0;$
0a#
0a"
0W%
0E%
05%
0$%
0q$
0H$
0J%
09%
0(%
0u$
0U$
0*$
0>#
01"
0P%
0?%
0.%
0{$
0a$
06$
0V#
0R"
0T%
0D%
02%
0!%
0k$
0A$
0N$
0#$
01#
0~
0T$
0)$
0=#
00"
0X$
0-$
0G#
0>"
0`$
05$
0U#
0Q"
0d$
09$
0_#
0_"
0j$
0@$
0L$
0!$
0,#
0w
0R$
0'$
08#
0)"
0V$
0+$
0B#
07"
0^$
03$
0P#
0J"
0b$
07$
0Z#
0X"
0h$
0>$
0%#
0n
0+#
0v
0/#
0|
07#
0("
0;#
0."
0A#
06"
0E#
0<"
0O#
0I"
0S#
0O"
0Y#
0W"
0]#
0u#
0]"
0w"
0Y%
1#
0##
0k
0)#
0s
0-#
0y
05#
0%"
09#
0+"
0?#
03"
0C#
09"
0M#
0F"
0Q#
0L"
0W#
0T"
0[#
0t#
0\"
0v"
0""
0{"
0y#
0N
0f
0j
0l
0r
0t
0x
0z
0$"
0&"
0*"
0,"
02"
04"
08"
0:"
0E"
0G"
0K"
0M"
0S"
0U"
0Y"
0["
0s"
0u"
0q
0~"
0_%
0|#
0z"
0x#
0M
0Z
0d
0p
0}"
03#
0{#
0e%
01
0?
0>
0L
0K
0S
0Y
0c
0b
0i
0|"
0q"
0(#
0q#
0z#
0%$
0k%
b0 "
b0 0&
10
1i"
0x"
1l#
0v#
0E$
0n$
1m"
1c#
03
07
0:
0=
0D
0C
0G
0J
0R
0U
0X
0]
0a
0h
1k"
0p"
1o"
0y"
0'#
1e#
1n#
0p#
0w#
0~#
0C$
0l$
0P$
0s%
0y%
0!&
1,
1-
1.
02
05
06
09
0;
0<
0@
0A
0E
0F
0H
0I
0P
0Q
0T
0V
0W
0[
0\
0_
0`
0e
0j"
0l"
0n"
0r"
0"#
0d#
0m#
0o#
0r#
0}#
0=$
0B$
0K$
0s$
0&%
07%
1$
bx %
bx +
b1 3&
b10011100100100000011001100111000 (
b10011100100100000011001100111000 *
b10011100100100000011001100111000 /&
#13
1}"
1{#
1|"
1z#
1F$
1o$
0B"
0K#
01$
0\$
0y$
0,%
0=%
0N%
1{"
1y#
01
1D$
1m$
1"%
13%
1C%
1U%
0Y%
0A"
1[%
0_%
0J#
1a%
0e%
00$
1g%
0k%
0[$
1m%
0x$
1u%
0+%
1{%
0<%
1}%
0M%
1%&
1/
10
0!"
0?"
0`"
02#
0H#
0`#
0$$
0.$
0:$
0O$
0Y$
0e$
0v$
0|$
0)%
0/%
0:%
0@%
0K%
0Q%
1:
1U
0""
0@"
0a"
03#
0I#
0a#
0%$
0/$
0;$
1A$
1k$
1!%
12%
1D%
1T%
0P$
0Z$
0f$
0w$
0}$
0*%
00%
0;%
0A%
0L%
0R%
0$&
0*&
1,&
0,
04
15
19
1@
0B
1F
1P
1T
1[
0^
1_
1q
11"
0C"
1R"
1l"
1(#
1>#
0L#
1V#
1o#
1~#
1*$
02$
16$
1=$
0G$
1K$
1U$
0]$
1a$
0p$
1u$
0z$
1{$
0#%
1(%
0-%
1.%
04%
19%
0>%
1?%
1J%
0O%
1P%
0V%
0Z%
0]%
0`%
0c%
0f%
0i%
0l%
0o%
0r%
0t%
0x%
0z%
0"&
0#&
0(&
0)&
0+&
b10 3&
b11100110100111101011110111001100 (
b11100110100111101011110111001100 *
b11100110100111101011110111001100 /&
